{
    "paths": [
        {
            "name": "/beer",
            "lambdaFunction": "amplifyblogarticle703db77c",
            "privacy": {
                "private": true,
                "auth": [
                    "/POST",
                    "/GET",
                    "/PUT",
                    "/PATCH",
                    "/DELETE"
                ]
            }
        }
    ],
    "resourceName": "api83194554",
    "apiName": "api83194554",
    "functionArns": [
        {
            "lambdaFunction": "amplifyblogarticle703db77c"
        }
    ],
    "privacy": {
        "auth": 1,
        "unauth": 0,
        "authRoleName": "amplify-blog-article-20190629184018-authRole",
        "unAuthRoleName": "amplify-blog-article-20190629184018-unauthRole"
    },
    "dependsOn": [
        {
            "category": "function",
            "resourceName": "amplifyblogarticle703db77c",
            "attributes": [
                "Name",
                "Arn"
            ]
        }
    ]
}